…
``` r
set.seed(206) 
seed_sample <- replicate(1000, sample(gss_educ$educ, nrow(gss_educ), replace = TRUE), simplify = FALSE)
boot_mean <- map_dbl(seed_sample, mean) %>%
  as_tibble()
  
boot_mean
```

    ## # A tibble: 1,000 x 1
    ##    value
    ##    <dbl>
    ##  1  13.7
    ##  2  13.8
    ##  3  13.7
    ##  4  13.7
    ##  5  13.7
    ##  6  13.7
    ##  7  13.7
    ##  8  13.7
    ##  9  13.8
    ## 10  13.8
    ## # … with 990 more rows
…
